top - 14:15:50 up 7 days, 10:48, 20 users,  load average: 0.52, 0.35, 0.33
Tasks: 195 total,   2 running, 136 sleeping,  21 stopped,   1 zombie
%Cpu(s): 21.1 us,  2.6 sy,  0.0 ni, 75.8 id,  0.4 wa,  0.0 hi,  0.0 si,  0.0 st
KiB Mem :  4918980 total,  1006972 free,  2868352 used,  1043656 buff/cache
KiB Swap:  2069500 total,  2067196 free,     2304 used.  1922760 avail Mem 

  PID USER      PR  NI    VIRT    RES    SHR S %CPU %MEM     TIME+ COMMAND
27508 zaunegg+  20   0   48868   3764   3172 R  6.2  0.1   0:00.02 top
 4248 zaunegg+  20   0   45276   4724   4020 S  0.0  0.1   0:00.11 systemd
 4249 zaunegg+  20   0  145380   2052      0 S  0.0  0.0   0:00.00 (sd-pam)
 4278 zaunegg+  20   0   94924   4260   3276 S  0.0  0.1   0:01.40 sshd
 4280 zaunegg+  20   0   29784   5540   3520 S  0.0  0.1   0:01.64 bash
