  580  cat MyHistory.txt
  581  ls
  582  nano MyHistory.txt 
  583  ls
  584  rm -rf MyHistory.txt 
  585  ls
  586  history 50
  587  history
  588  history 100 > myHistory.txt
  589  cat myHistory.txt
  590  clear
  591  ls
  592  cd ..
  593  cd cs362classchrispell/ClassNotes
  594  ls
  595  cd Class09142018/
  596  ls
  597  cat ClassExample.tex
  598  cd ..
  599  cd cs362classzaunegger/assignments/assignment2
  600  ls
  601  cat Assignment2.tex
  602  nano Assignment2.tex
  603  cat Assignment2.tex
  604  pdflatex Assignment2.tex 
  605  l
  606  git add Assingment2.*
  607  git add Assingment2.aux
  608  cd .. .. ..
  609  cd ~
  610  ls
  611  cd cs362classchrispell/
  612  cd ClassNotes
  613  ls
  614  Class09142018/
  615  ls
  616  cd Class09142018/
  617  ls
  618  cat CommandHistoryFinal.txt 
  619  ls
  620  cd ..
  621  cd ~
  622  cd cs362classzaunegger/assingments/assignment2
  623  ls
  624  cd cs362classzaunegger/assingments/Assignment2
  625  cd cs362classzaunegger/
  626  cd assingments
  627  ls
  628  cd assignments
  629  cd Assignmet2
  630  ls
  631  cd assignment2
  632  ls
  633  git add Assignment2.pdf
  634  git add Assignment2.tex
  635  git add myHistory.txt 
  636  git add MyUsuageHistory.txt
  637  git add UsuageHistory.txt
  638  git add UsageHistory.txt
  639  git commit -m "The submission of the necessary files for Assignment 2"
  640  git push
  641  nano assignment2.pdf
  642  nano assingment2.tex
  643  ls
  644  nano Assignment2.tex
  645  cat Assignment2
  646  ls
  647  cat Assignment2.tex
  648  nano Assignment2.tex
  649  pdflatex Assignment2.tex
  650  nano Assingment2.tex
  651  nano Assignment2.tex
  652  pdflatex Assignment2.tex
  653  nano Assignment2.tex
  654  pdflatex Assignment2.tex
  655  nano Assignment2.tex
  656  pdflatex Assignment2.tex
  657  ls
  658  cat m.aux
  659  git add assignment2
  660  git add Assignment2.*
  661  git status
  662  git commit -m "This is an update for assignment2"
  663  git push
  664  clear
  665  ls
  666  history
  667  top
  668  top 50 > usageHistory.tex
  669  top 50
  670  top -50
  671  last
  672  last -50
  673  last -50 > usageHistory.tex
  674  ls
  675  rm -rm *.txt
  676  rm -rf *.txt
  677  ls
  678  rm -rf <.aux
  679  rm -rf m.aux
  680  rm -rf M.aux
  681  ls
  682  last -u zaunegger > myUsageHistory.tex
  683  top -u zaunegger > myUsageHistory.tex
  684  ls
  685  cat usageHistory.tex
  686  ls
  687  rm -rf Assignment2.aux
  688  rm -rf Assignment2.log
  689  rm -rf Assignment2.pfg
  690  ls
  691  rm -rf U.aux
  692  rm -rf UsageHistory.txt.aux
  693  ls
  694  rm -rf MyUsageHistory.txt.aux
  695  ls
  696  rm -rf Assignment2.pfg
  697  rm -rf Assignment2.pdf
  698  ls
  699  rm -rf <.aux
  700  ls
  701  rm -rf myHistory.txt.aux
  702  ls
  703  rm -rf MyUsuageHistory.txt.aux
  704  ls
  705  cat myUsageHistory.tex
  706  ls
  707  cat usageHistory.tex
  708  clear
  709  ls
  710  history
  711  nano Assignment2.tex
  712  top -u zaunegger myHistory.txt
  713  top -u zaunegger > myUsageHistory.txt
  714  last -u zaunegger > myUsageHistory.tex
  715  last
  716  last 50 > usageHistory.txt
  717  nano Assignment2.tex 
  718  ls
  719  cat myUsageHistory.txt
  720  cat usageHistory.txt
  721  clear
  722  ls
  723  cat usageHistory.txt
  724  top
  725  last 50
  726  last
  727  last -n 50 > lat50.txt
  728  ls
  729  history 150 > myHistory.txt
