\contentsline {chapter}{\numberline {1}Installing a VPN on the Raspberry Pi}{3}{chapter.1}
\contentsline {section}{\numberline {1.1}Introduction}{3}{section.1.1}
\contentsline {section}{\numberline {1.2}Preparation and Setup}{3}{section.1.2}
\contentsline {section}{\numberline {1.3}Configuration}{3}{section.1.3}
\contentsline {section}{\numberline {1.4}Utilization}{4}{section.1.4}
